%YAML 1.1
%TAG !u! tag:unity3d.com,2011:
--- !u!1 &158398
GameObject:
  m_ObjectHideFlags: 0
  m_PrefabParentObject: {fileID: 0}
  m_PrefabInternal: {fileID: 100100000}
  serializedVersion: 5
  m_Component:
  - component: {fileID: 449306}
  - component: {fileID: 11435534}
  m_Layer: 0
  m_Name: TestParticlesGenerator_4_BYOB
  m_TagString: Untagged
  m_Icon: {fileID: 0}
  m_NavMeshLayer: 0
  m_StaticEditorFlags: 0
  m_IsActive: 1
--- !u!4 &449306
Transform:
  m_ObjectHideFlags: 1
  m_PrefabParentObject: {fileID: 0}
  m_PrefabInternal: {fileID: 100100000}
  m_GameObject: {fileID: 158398}
  m_LocalRotation: {x: -0.7071068, y: 0, z: 0, w: 0.7071068}
  m_LocalPosition: {x: 0, y: 0, z: 0}
  m_LocalScale: {x: 1, y: 1, z: 1}
  m_Children: []
  m_Father: {fileID: 0}
  m_RootOrder: 0
  m_LocalEulerAnglesHint: {x: -90, y: 0, z: 0}
--- !u!114 &11435534
MonoBehaviour:
  m_ObjectHideFlags: 1
  m_PrefabParentObject: {fileID: 0}
  m_PrefabInternal: {fileID: 100100000}
  m_GameObject: {fileID: 158398}
  m_Enabled: 1
  m_EditorHideFlags: 0
  m_Script: {fileID: 11500000, guid: f7336cae4889fa5469e08048187dd834, type: 3}
  m_Name: 
  m_EditorClassIdentifier: 
  m_particlesPerSecond: 120
  m_particlesSpawnPositionRandomRange: 1
  m_spawnPositionScale: {x: 1, y: 1, z: 1}
  m_isSpawnRangeAbsoluteValue_x: 0
  m_isSpawnRangeAbsoluteValue_y: 0
  m_isSpawnRangeAbsoluteValue_z: 0
  m_particlesVelocityScale: 2
  m_particlesVelocity_Min: 1
  m_particlesVelocity_Max: 1
  m_particlesLifetime_Min: 10
  m_particlesLifetime_Max: 10
  m_defaultSpawnColor: {r: 1, g: 0, b: 0, a: 1}
  m_spawnScale: 24
  m_isParticleFlowConstant: 1
  m_isParticleSpawnVelConstant: 1
  m_isLeapSource: 0
  m_spawnType: 1
  m_isUpVectorCircleSpawnUp: 0
  m_spawnConstant: 10
  m_isScaleSpreadFFT: 1
  m_scaleSpread_Min: 1
  m_scaleSpread_Max: 5
  m_fftIndex: 0
--- !u!1001 &100100000
Prefab:
  m_ObjectHideFlags: 1
  serializedVersion: 2
  m_Modification:
    m_TransformParent: {fileID: 0}
    m_Modifications:
    - target: {fileID: 0}
      propertyPath: m_spawnPositionScale.y
      value: 1
      objectReference: {fileID: 0}
    - target: {fileID: 0}
      propertyPath: m_spawnPositionScale.z
      value: 0
      objectReference: {fileID: 0}
    - target: {fileID: 0}
      propertyPath: m_particlesPerSecond
      value: 240
      objectReference: {fileID: 0}
    - target: {fileID: 0}
      propertyPath: m_particlesLifetime_Min
      value: 7
      objectReference: {fileID: 0}
    - target: {fileID: 0}
      propertyPath: m_particlesLifetime_Max
      value: 7
      objectReference: {fileID: 0}
    - target: {fileID: 0}
      propertyPath: m_particlesVelocityScale
      value: 50
      objectReference: {fileID: 0}
    - target: {fileID: 0}
      propertyPath: m_isParticleSpawnVelConstant
      value: 1
      objectReference: {fileID: 0}
    - target: {fileID: 0}
      propertyPath: m_particlesVelocity_Min
      value: 10
      objectReference: {fileID: 0}
    - target: {fileID: 0}
      propertyPath: m_particlesVelocity_Max
      value: 10
      objectReference: {fileID: 0}
    - target: {fileID: 0}
      propertyPath: m_particlesSpawnPositionRandomRange
      value: 1
      objectReference: {fileID: 0}
    - target: {fileID: 0}
      propertyPath: m_spawnScale
      value: 4
      objectReference: {fileID: 0}
    - target: {fileID: 0}
      propertyPath: m_isParticleFlowConstant
      value: 1
      objectReference: {fileID: 0}
    m_RemovedComponents: []
  m_ParentPrefab: {fileID: 0}
  m_RootGameObject: {fileID: 158398}
  m_IsPrefabParent: 1
